…
The similar approach works for counting occurrences of categorical raster values within polygons.
This is illustrated with a land cover dataset (`nlcd`) from the **spDataLarge** package in Figure \@ref(fig:polyextr)(B), and demonstrated in the code below:


```r
nlcd = rast(system.file("raster/nlcd.tif", package = "spDataLarge"))
zion2 = st_transform(zion, st_crs(nlcd))
zion_nlcd = terra::extract(nlcd, vect(zion2))
zion_nlcd %>% 
  group_by(ID, levels) %>%
  count()
#> # A tibble: 7 × 3
#> # Groups:   ID, levels [7]
#>      ID levels      n
#>   <dbl>  <int>  <int>
#> 1     1      2   4205
#> 2     1      3  98285
#> 3     1      4 298299
#> 4     1      5 203701
#> # … with 3 more rows
```
…
