…
The similar approach works for counting occurrences of categorical raster values within polygons.
This is illustrated with a land cover dataset (`nlcd`) from the **spDataLarge** package in Figure \@ref(fig:polyextr)(B), and demonstrated in the code below:


```r
nlcd = rast(system.file("raster/nlcd.tif", package = "spDataLarge"))
zion2 = st_transform(zion, st_crs(nlcd))
zion_nlcd = terra::extract(nlcd, vect(zion2))
zion_nlcd |> 
  group_by(ID, levels) |>
  count()
#> # A tibble: 7 x 3
#> # Groups:   ID, levels [7]
#>      ID levels         n
#>   <dbl> <fct>      <int>
#> 1     1 Developed   4205
#> 2     1 Barren     98285
#> 3     1 Forest    298299
#> 4     1 Shrubland 203701
#> # ... with 3 more rows
#> # i Use `print(n = ...)` to see more rows
```
…
