Chapter 6 Raster-vector interactions | Geocomputation with R
…
The preceding code chunk used the tidyverse to provide summary statistics for cell values per polygon ID, as described in Chapter 3.
The results provide useful summaries, for example that the maximum height in the park is around 2,661 meters above see level (other summary statistics, such as standard deviation, can also be calculated in this way).
Because there is only one polygon in the example a data frame with a single row is returned; however, the method works when multiple selector polygons are used.

The similar approach works for counting occurrences of categorical raster values within polygons.
This is illustrated with a land cover dataset (nlcd) from the spDataLarge package in Figure 6.4(B), and demonstrated in the code below:

nlcd = rast(system.file("raster/nlcd.tif", package = "spDataLarge"))
zion2 = st_transform(zion, st_crs(nlcd))
zion_nlcd = terra::extract(nlcd, vect(zion2))
zion_nlcd %>% 
  group_by(ID, levels) %>%
  count()
#> # A tibble: 7 × 3
#> # Groups:   ID, levels [7]
#>      ID levels         n
#>   <dbl> <fct>      <int>
#> 1     1 Developed   4205
#> 2     1 Barren     98285
#> 3     1 Forest    298299
#> 4     1 Shrubland 203701
#> # … with 3 more rows
…
